Compass Directions
…
Data (same as NNW WNW)

datacells <-
  cells %>%
  filter(row >= 3, col >= 3, !is.na(chr)) %>%
  mutate(value = as.integer(chr)) %>%
  select(row, col, value)
datacells

## # A tibble: 72 x 3
##      row   col value
##    <int> <int> <int>
##  1     3     3  7000
##  2     4     3 12000
##  3     5     3 10000
##  4     7     3 29000
##  5     8     3 34000
##  6     9     3 30000
##  7    10     3 12000
##  8    12     3 10000
##  9    13     3  6000
## 10    14     3  5000
## # ... with 62 more rows
…
Data

datacells <-
  cells %>%
  filter(row <= 20, col <= 4, !is.na(chr)) %>%
  mutate(value = as.integer(chr)) %>%
  select(row, col, value)
datacells

## # A tibble: 72 x 3
##      row   col value
##    <int> <int> <int>
##  1     1     1  7000
##  2     2     1 12000
##  3     3     1 10000
##  4     5     1 29000
##  5     6     1 34000
##  6     7     1 30000
##  7     8     1 12000
##  8    10     1 10000
##  9    11     1  6000
## 10    12     1  5000
## # ... with 62 more rows
…
Data (same as SSE ESE)

datacells <-
  cells %>%
  filter(row <= 20, col <= 4, !is.na(chr)) %>%
  mutate(value = as.integer(chr)) %>%
  select(row, col, value)
datacells

## # A tibble: 72 x 3
##      row   col value
##    <int> <int> <int>
##  1     1     1  7000
##  2     2     1 12000
##  3     3     1 10000
##  4     5     1 29000
##  5     6     1 34000
##  6     7     1 30000
##  7     8     1 12000
##  8    10     1 10000
##  9    11     1  6000
## 10    12     1  5000
## # ... with 62 more rows
…
Data

datacells <-
  cells %>%
  filter(row >= 3, col >= 3, !is.na(chr)) %>%
  mutate(value = as.integer(chr)) %>%
  select(row, col, value)
datacells

## # A tibble: 55 x 3
##      row   col value
##    <int> <int> <int>
##  1     3     3  7000
##  2     4     3 29000
##  3     6     3 10000
##  4     9     3 30000
##  5    10     3  9000
##  6    11     3 12000
##  7     3     4 12000
##  8     4     4 34000
##  9     5     4 10000
## 10     6     4 11000
## # ... with 45 more rows
…
Data

datacells <-
  cells %>%
  filter(row <= 10, col <= 6, !is.na(chr)) %>%
  mutate(value = as.integer(chr)) %>%
  select(row, col, value)
datacells

## # A tibble: 55 x 3
##      row   col value
##    <int> <int> <int>
##  1     1     1  7000
##  2     2     1 29000
##  3     4     1 10000
##  4     7     1 30000
##  5     8     1  9000
##  6     9     1 12000
##  7     1     2 12000
##  8     2     2 34000
##  9     3     2 10000
## 10     4     2 11000
## # ... with 45 more rows
…
Data

# Same as ABOVE LEFT without borders
datacells <-
  cells %>%
  filter(row >= 4, col >= 4, !is_blank) %>%
  mutate(content = ifelse(is.na(character), numeric, NA)) %>%
  mutate(value = as.integer(content)) %>%
  select(row, col, value)
datacells

## # A tibble: 55 x 3
##      row   col  value
##    <int> <int>  <int>
##  1     4     4   7000
##  2     4     5  12000
##  3     4     6  10000
##  4     4     7  27000
##  5     4     8 137000
##  6     4     9  64000
##  7     5     4  29000
##  8     5     5  34000
##  9     5     6  30000
## 10     5     7 161000
## # ... with 45 more rows
…
Data

# Same as BELOW RIGHT without borders
datacells <-
  cells %>%
  filter(row <= 13, col <= 9, !is_blank) %>%
  mutate(content = ifelse(is.na(character), numeric, NA)) %>%
  mutate(value = as.integer(content)) %>%
  select(row, col, value)
datacells

## # A tibble: 55 x 3
##      row   col  value
##    <int> <int>  <int>
##  1     4     4   7000
##  2     4     5  12000
##  3     4     6  10000
##  4     4     7  27000
##  5     4     8 137000
##  6     4     9  64000
##  7     5     4  29000
##  8     5     5  34000
##  9     5     6  30000
## 10     5     7 161000
## # ... with 45 more rows
…
